sample,command,orfan,orfan1,orfan2,paired1,paired2,combined1,combined2
82415,-1 82415_CGATGTA_S1_L007_R1_001.fastq.gz -2 82415_CGATGTA_S1_L007_R2_001.fastq.gz -o filtered/82415,82415_SE.fastq,82415_SE1.fastq,82415_SE2.fastq,82415_PE1.fastq,82415_PE2.fastq,82415_PE_SE_1.fastq,82415_PE_SE_2.fastq
82416,-1 82416_TGACCAA_S2_L007_R1_001.fastq.gz -2 82416_TGACCAA_S2_L007_R2_001.fastq.gz -o filtered/82416,82416_SE.fastq,82416_SE1.fastq,82416_SE2.fastq,82416_PE1.fastq,82416_PE2.fastq,82416_PE_SE_1.fastq,82416_PE_SE_2.fastq
82417,-1 82417_ACAGTGA_S3_L007_R1_001.fastq.gz -2 82417_ACAGTGA_S3_L007_R2_001.fastq.gz -o filtered/82417,82417_SE.fastq,82417_SE1.fastq,82417_SE2.fastq,82417_PE1.fastq,82417_PE2.fastq,82417_PE_SE_1.fastq,82417_PE_SE_2.fastq
82418,-1 82418_GCCAATA_S4_L007_R1_001.fastq.gz -2 82418_GCCAATA_S4_L007_R2_001.fastq.gz -o filtered/82418,82418_SE.fastq,82418_SE1.fastq,82418_SE2.fastq,82418_PE1.fastq,82418_PE2.fastq,82418_PE_SE_1.fastq,82418_PE_SE_2.fastq
82419,-1 82419_ATGTCAG_S5_L007_R1_001.fastq.gz -2 82419_ATGTCAG_S5_L007_R2_001.fastq.gz -o filtered/82419,82419_SE.fastq,82419_SE1.fastq,82419_SE2.fastq,82419_PE1.fastq,82419_PE2.fastq,82419_PE_SE_1.fastq,82419_PE_SE_2.fastq
82420,-1 82420_CCGTCCC_S6_L007_R1_001.fastq.gz -2 82420_CCGTCCC_S6_L007_R2_001.fastq.gz -o filtered/82420,82420_SE.fastq,82420_SE1.fastq,82420_SE2.fastq,82420_PE1.fastq,82420_PE2.fastq,82420_PE_SE_1.fastq,82420_PE_SE_2.fastq
82421,-1 82421_CAGATCA_S7_L007_R1_001.fastq.gz -2 82421_CAGATCA_S7_L007_R2_001.fastq.gz -o filtered/82421,82421_SE.fastq,82421_SE1.fastq,82421_SE2.fastq,82421_PE1.fastq,82421_PE2.fastq,82421_PE_SE_1.fastq,82421_PE_SE_2.fastq
82422,-1 82422_CTTGTAA_S8_L007_R1_001.fastq.gz -2 82422_CTTGTAA_S8_L007_R2_001.fastq.gz -o filtered/82422,82422_SE.fastq,82422_SE1.fastq,82422_SE2.fastq,82422_PE1.fastq,82422_PE2.fastq,82422_PE_SE_1.fastq,82422_PE_SE_2.fastq
82423,-1 82423_GTCCGCA_S9_L007_R1_001.fastq.gz -2 82423_GTCCGCA_S9_L007_R2_001.fastq.gz -o filtered/82423,82423_SE.fastq,82423_SE1.fastq,82423_SE2.fastq,82423_PE1.fastq,82423_PE2.fastq,82423_PE_SE_1.fastq,82423_PE_SE_2.fastq
82424,-1 82424_AGTCAAC_S10_L007_R1_001.fastq.gz -2 82424_AGTCAAC_S10_L007_R2_001.fastq.gz -o filtered/82424,82424_SE.fastq,82424_SE1.fastq,82424_SE2.fastq,82424_PE1.fastq,82424_PE2.fastq,82424_PE_SE_1.fastq,82424_PE_SE_2.fastq
82425,-1 82425_AGTTCCG_S11_L007_R1_001.fastq.gz -2 82425_AGTTCCG_S11_L007_R2_001.fastq.gz -o filtered/82425,82425_SE.fastq,82425_SE1.fastq,82425_SE2.fastq,82425_PE1.fastq,82425_PE2.fastq,82425_PE_SE_1.fastq,82425_PE_SE_2.fastq