﻿accession,specie
39070,Allantoma_decandra
39074,Allantoma_lineata
39061,Barringtonia_edulis
39071,Bertholletia_excelsa
39075,Cariniana_estrellensis
39058,Corythophora_amapaensis
39066,Corythophora_labriculata
39069,Couratari_macrosperma
39057,Couratari_stellata
39064,Couroupita_guianensis
39068,Eschweilera_alata
39078,Eschweilera_caudiculata
39076,Eschweilera_integrifolia
39063,Eschweilera_micrantha
39079,Eschweilera_pittieri
39065,Eschweilera_wachenheimii
39072,Grias_cauliflora
39059,Gustavia_augusta
39077,Gustavia_serrata
39080,Lecythis_ampla
39067,Lecythis_congestiflora
39060,Lecythis_corrugata
39062,Lecythis_minor
39073,Lecythis_pneumatophora